<Qucs Schematic 0.0.18>
<Properties>
  <View=-123,-19,703,600,1.11454,0,0>
  <Grid=10,10,1>
  <DataSet=CurrentSensor.dat>
  <DataDisplay=CurrentSensor.dpl>
  <OpenDisplay=1>
  <Script=CurrentSensor.m>
  <RunScript=0>
  <showFrame=0>
  <FrameText0=Title>
  <FrameText1=Drawn By:>
  <FrameText2=Date:>
  <FrameText3=Revision:>
</Properties>
<Symbol>
</Symbol>
<Components>
  <OpAmp OP1 1 360 320 -26 -86 1 0 "1e6" 1 "5 V" 0>
  <GND * 1 450 340 0 0 0 0>
  <VProbe Vout 1 500 330 -16 28 0 3>
  <.DC DC1 1 280 30 0 42 0 0 "26.85" 0 "0.001" 0 "1 pA" 0 "1 uV" 0 "no" 0 "150" 0 "no" 0 "none" 0 "CroutLU" 0>
  <GND * 1 70 400 0 0 0 0>
  <R R1 1 140 380 -26 15 0 0 "82k" 1 "26.85" 0 "0.0" 0 "0.0" 0 "26.85" 0 "US" 0>
  <R R2 1 140 230 -26 15 0 0 "82k" 1 "26.85" 0 "0.0" 0 "0.0" 0 "26.85" 0 "US" 0>
  <Vdc Sensor 1 70 280 -70 -25 1 1 "Vin" 1>
  <potentiometer gPOT 1 270 210 -61 -32 0 3 "10k" 0 "100" 0 "0" 0 "1" 0 "360" 0 "0.2" 0 "0.2" 0 "1" 0 "100" 0 "26.85" 0 "26.85" 0>
  <potentiometer zPOT 1 220 340 -61 -32 0 3 "10k" 0 "250" 0 "0" 0 "1" 0 "360" 0 "0.2" 0 "0.2" 0 "1" 0 "100" 0 "26.85" 0 "26.85" 0>
  <R Rin 1 140 170 -26 -59 1 0 "220" 1 "26.85" 0 "0.0" 0 "0.0" 0 "26.85" 0 "US" 0>
  <R Rf 1 380 210 -26 -59 1 0 "15k" 1 "26.85" 0 "0.0" 0 "0.0" 0 "26.85" 0 "US" 0>
  <.SW SW1 1 510 30 0 68 0 0 "DC1" 1 "lin" 1 "Vin" 1 "0 V" 1 "1.65 V" 1 "50" 1>
</Components>
<Wires>
  <400 320 460 320 "" 0 0 0 "">
  <460 320 480 320 "" 0 0 0 "">
  <450 340 480 340 "" 0 0 0 "">
  <170 170 270 170 "" 0 0 0 "">
  <290 210 290 300 "" 0 0 0 "">
  <290 300 330 300 "" 0 0 0 "">
  <460 210 460 320 "" 0 0 0 "">
  <410 210 460 210 "" 0 0 0 "">
  <290 210 350 210 "" 0 0 0 "">
  <240 340 330 340 "" 0 0 0 "">
  <70 380 70 400 "" 0 0 0 "">
  <70 380 110 380 "" 0 0 0 "">
  <170 380 220 380 "" 0 0 0 "">
  <70 310 70 380 "" 0 0 0 "">
  <70 170 110 170 "" 0 0 0 "">
  <70 170 70 230 "" 0 0 0 "">
  <170 230 220 230 "" 0 0 0 "">
  <220 230 220 300 "" 0 0 0 "">
  <70 230 70 250 "" 0 0 0 "">
  <70 230 110 230 "" 0 0 0 "">
  <290 210 290 210 "Vgnd" 340 100 0 "">
</Wires>
<Diagrams>
</Diagrams>
<Paintings>
  <Text -10 30 18 #000000 0 "Inverting Amplifier\nGain = Rf / Rin">
</Paintings>
